<?xml version="1.0" encoding="UTF-8" standalone="no"?>
<svg
   xmlns:dc="http://purl.org/dc/elements/1.1/"
   xmlns:cc="http://creativecommons.org/ns#"
   xmlns:rdf="http://www.w3.org/1999/02/22-rdf-syntax-ns#"
   xmlns:svg="http://www.w3.org/2000/svg"
   xmlns="http://www.w3.org/2000/svg"
   viewBox="0 0 224 320"
   height="320"
   width="224"
   xml:space="preserve"
   id="svg2"
   version="1.1"><metadata
     id="metadata8"><rdf:RDF><cc:Work
         rdf:about=""><dc:format>image/svg+xml</dc:format><dc:type
           rdf:resource="http://purl.org/dc/dcmitype/StillImage" /><dc:title></dc:title></cc:Work></rdf:RDF></metadata><defs
     id="defs6"><clipPath
       id="clipPath18"
       clipPathUnits="userSpaceOnUse"><path
         style="clip-rule:evenodd"
         id="path16"
         d="M 0,0 H 700 V 997.42487 H 0 Z" /></clipPath><clipPath
       id="clipPath30"
       clipPathUnits="userSpaceOnUse"><path
         style="clip-rule:evenodd"
         id="path28"
         d="M 0,0 H 700 V 997.42487 H 0 Z" /></clipPath></defs><g
     transform="matrix(0.31999998,0,0,0.31999998,0,8e-6)"
     id="g10"><g
       id="g12"><g
         clip-path="url(#clipPath18)"
         id="g14"><g
           transform="scale(3.0042918)"
           id="g20"><path
             id="path22"
             style="fill:#ffffff;fill-opacity:1;fill-rule:nonzero;stroke:none"
             d="M 0,0 H 233 V 332 H 0 Z" /></g></g></g><g
       id="g24"><g
         clip-path="url(#clipPath30)"
         id="g26"><g
           transform="matrix(3.0042918,0,0,3.0042918,1.5021459,1.5021459)"
           id="g32"><path
             id="path34"
             style="fill:#d5e8d4;fill-opacity:1;fill-rule:nonzero;stroke:none"
             d="m 25,31 h 112 c 0.78603,2e-6 1.57016,0.03852 2.35242,0.115568 0.78224,0.07704 1.55882,0.192238 2.32974,0.345583 0.77093,0.153349 1.53248,0.344109 2.28467,0.572281 0.75218,0.228168 1.49136,0.492657 2.21754,0.793457 0.72621,0.3008 1.43593,0.636467 2.12915,1.007 0.69321,0.370533 1.36658,0.774143 2.02013,1.210835 0.65358,0.436695 1.28416,0.904373 1.89178,1.403026 0.60762,0.498654 1.18932,1.025879 1.74512,1.581684 0.55582,0.555809 1.08305,1.137516 1.5817,1.745125 0.49864,0.607609 0.9663,1.238194 1.403,1.89175 0.43669,0.653561 0.84031,1.32695 1.21084,2.020169 0.37053,0.693218 0.70619,1.402923 1.00699,2.129116 0.3008,0.7262 0.56529,1.465389 0.79347,2.217571 0.22818,0.752186 0.41895,1.513741 0.57228,2.284664 0.15337,0.770931 0.26857,1.547516 0.34562,2.329758 C 160.96149,53.429832 161,54.21397 161,55 v 192 c 0,0.78603 -0.0385,1.57018 -0.11555,2.35242 -0.077,0.78224 -0.19225,1.5588 -0.34562,2.32971 -0.15333,0.77093 -0.3441,1.53248 -0.57228,2.28467 -0.22818,0.75219 -0.49267,1.49138 -0.79347,2.21756 -0.3008,0.72622 -0.63646,1.43594 -1.00699,2.12915 -0.37053,0.6932 -0.77415,1.36657 -1.21084,2.02011 -0.4367,0.65359 -0.90436,1.28418 -1.40302,1.89178 -0.49864,0.60761 -1.02586,1.1893 -1.58168,1.74512 -0.5558,0.55582 -1.1375,1.08307 -1.74512,1.5817 -0.6076,0.49865 -1.23819,0.96633 -1.89177,1.40301 -0.65355,0.43668 -1.32692,0.8403 -2.02014,1.21085 -0.69322,0.37054 -1.40294,0.7062 -2.12915,1.00699 -0.72618,0.30081 -1.46535,0.56527 -2.21753,0.79345 -0.75218,0.22818 -1.51375,0.41895 -2.28468,0.5723 -0.77092,0.15335 -1.5475,0.26858 -2.32974,0.34564 C 138.57016,270.96149 137.78603,271 137,271 H 25 c -0.786028,0 -1.570166,-0.0385 -2.352409,-0.11554 -0.782244,-0.0771 -1.558831,-0.19229 -2.32976,-0.34564 -0.770925,-0.15335 -1.532478,-0.34412 -2.284662,-0.5723 -0.752184,-0.22818 -1.491375,-0.49264 -2.217572,-0.79345 -0.726197,-0.30079 -1.435903,-0.63645 -2.129118,-1.00699 -0.693217,-0.37055 -1.366605,-0.77417 -2.020165,-1.21085 -0.65356,-0.43668 -1.284144,-0.90436 -1.8917531,-1.40301 -0.6076088,-0.49863 -1.1893167,-1.02588 -1.7451238,-1.5817 C 7.4736304,263.4147 6.9464011,262.83301 6.4477491,262.2254 5.9490972,261.6178 5.4814234,260.98721 5.0447288,260.33362 4.6080341,259.68008 4.204421,259.00671 3.8338895,258.31351 3.4633577,257.6203 3.1276915,256.91058 2.8268909,256.18436 2.5260904,255.45818 2.2616041,254.71899 2.0334318,253.96681 1.8052595,253.21463 1.6144999,252.45308 1.4611531,251.68214 1.3078065,250.91122 1.1926109,250.13466 1.1155665,249.35242 1.0385221,248.57018 1,247.78603 1,247 V 55 c 0,-0.78603 0.038522,-1.570168 0.1155665,-2.352413 0.077044,-0.782246 0.19224,-1.55883 0.3455866,-2.329762 0.1533468,-0.770923 0.3441064,-1.532478 0.5722787,-2.284664 0.2281723,-0.752182 0.4926586,-1.491371 0.7934591,-2.217571 0.3008006,-0.726193 0.636467,-1.435902 1.0069988,-2.12912 0.3705313,-0.693214 0.7741444,-1.3666 1.2108391,-2.020161 0.4366946,-0.653556 0.9043684,-1.284141 1.4030208,-1.89175 0.4986515,-0.607609 1.0258808,-1.189316 1.5816875,-1.745125 0.5558071,-0.555805 1.137515,-1.08303 1.7451238,-1.581684 0.6076091,-0.498653 1.2381931,-0.966331 1.8917531,-1.403026 0.65356,-0.436692 1.326948,-0.840302 2.020165,-1.210835 0.693215,-0.370533 1.402921,-0.7062 2.129118,-1.007 0.726197,-0.3008 1.465388,-0.565289 2.217572,-0.793457 0.752184,-0.228172 1.513737,-0.418932 2.284662,-0.572281 0.770929,-0.153345 1.547516,-0.268539 2.32976,-0.345583 C 23.429834,31.038525 24.213972,31.000002 25,31 Z" /><path
             id="path36"
             style="fill:none;stroke:#82b366;stroke-width:1;stroke-linecap:butt;stroke-linejoin:miter;stroke-miterlimit:10;stroke-dasharray:none;stroke-opacity:1"
             d="m 25,31 h 112 c 0.78603,2e-6 1.57016,0.03852 2.35242,0.115568 0.78224,0.07704 1.55882,0.192238 2.32974,0.345583 0.77093,0.153349 1.53248,0.344109 2.28467,0.572281 0.75218,0.228168 1.49136,0.492657 2.21754,0.793457 0.72621,0.3008 1.43593,0.636467 2.12915,1.007 0.69321,0.370533 1.36658,0.774143 2.02013,1.210835 0.65358,0.436695 1.28416,0.904373 1.89178,1.403026 0.60762,0.498654 1.18932,1.025879 1.74512,1.581684 0.55582,0.555809 1.08305,1.137516 1.5817,1.745125 0.49864,0.607609 0.9663,1.238194 1.403,1.89175 0.43669,0.653561 0.84031,1.32695 1.21084,2.020169 0.37053,0.693218 0.70619,1.402923 1.00699,2.129116 0.3008,0.7262 0.56529,1.465389 0.79347,2.217571 0.22818,0.752186 0.41895,1.513741 0.57228,2.284664 0.15337,0.770931 0.26857,1.547516 0.34562,2.329758 C 160.96149,53.429832 161,54.21397 161,55 v 192 c 0,0.78603 -0.0385,1.57018 -0.11555,2.35242 -0.077,0.78224 -0.19225,1.5588 -0.34562,2.32971 -0.15333,0.77093 -0.3441,1.53248 -0.57228,2.28467 -0.22818,0.75219 -0.49267,1.49138 -0.79347,2.21756 -0.3008,0.72622 -0.63646,1.43594 -1.00699,2.12915 -0.37053,0.6932 -0.77415,1.36657 -1.21084,2.02011 -0.4367,0.65359 -0.90436,1.28418 -1.40302,1.89178 -0.49864,0.60761 -1.02586,1.1893 -1.58168,1.74512 -0.5558,0.55582 -1.1375,1.08307 -1.74512,1.5817 -0.6076,0.49865 -1.23819,0.96633 -1.89177,1.40301 -0.65355,0.43668 -1.32692,0.8403 -2.02014,1.21085 -0.69322,0.37054 -1.40294,0.7062 -2.12915,1.00699 -0.72618,0.30081 -1.46535,0.56527 -2.21753,0.79345 -0.75218,0.22818 -1.51375,0.41895 -2.28468,0.5723 -0.77092,0.15335 -1.5475,0.26858 -2.32974,0.34564 C 138.57016,270.96149 137.78603,271 137,271 H 25 c -0.786028,0 -1.570166,-0.0385 -2.352409,-0.11554 -0.782244,-0.0771 -1.558831,-0.19229 -2.32976,-0.34564 -0.770925,-0.15335 -1.532478,-0.34412 -2.284662,-0.5723 -0.752184,-0.22818 -1.491375,-0.49264 -2.217572,-0.79345 -0.726197,-0.30079 -1.435903,-0.63645 -2.129118,-1.00699 -0.693217,-0.37055 -1.366605,-0.77417 -2.020165,-1.21085 -0.65356,-0.43668 -1.284144,-0.90436 -1.8917531,-1.40301 -0.6076088,-0.49863 -1.1893167,-1.02588 -1.7451238,-1.5817 C 7.4736304,263.4147 6.9464011,262.83301 6.4477491,262.2254 5.9490972,261.6178 5.4814234,260.98721 5.0447288,260.33362 4.6080341,259.68008 4.204421,259.00671 3.8338895,258.31351 3.4633577,257.6203 3.1276915,256.91058 2.8268909,256.18436 2.5260904,255.45818 2.2616041,254.71899 2.0334318,253.96681 1.8052595,253.21463 1.6144999,252.45308 1.4611531,251.68214 1.3078065,250.91122 1.1926109,250.13466 1.1155665,249.35242 1.0385221,248.57018 1,247.78603 1,247 V 55 c 0,-0.78603 0.038522,-1.570168 0.1155665,-2.352413 0.077044,-0.782246 0.19224,-1.55883 0.3455866,-2.329762 0.1533468,-0.770923 0.3441064,-1.532478 0.5722787,-2.284664 0.2281723,-0.752182 0.4926586,-1.491371 0.7934591,-2.217571 0.3008006,-0.726193 0.636467,-1.435902 1.0069988,-2.12912 0.3705313,-0.693214 0.7741444,-1.3666 1.2108391,-2.020161 0.4366946,-0.653556 0.9043684,-1.284141 1.4030208,-1.89175 0.4986515,-0.607609 1.0258808,-1.189316 1.5816875,-1.745125 0.5558071,-0.555805 1.137515,-1.08303 1.7451238,-1.581684 0.6076091,-0.498653 1.2381931,-0.966331 1.8917531,-1.403026 0.65356,-0.436692 1.326948,-0.840302 2.020165,-1.210835 0.693215,-0.370533 1.402921,-0.7062 2.129118,-1.007 0.726197,-0.3008 1.465388,-0.565289 2.217572,-0.793457 0.752184,-0.228172 1.513737,-0.418932 2.284662,-0.572281 0.770929,-0.153345 1.547516,-0.268539 2.32976,-0.345583 C 23.429834,31.038525 24.213972,31.000002 25,31 Z" /><path
             id="path38"
             style="fill:#ffffff;fill-opacity:1;fill-rule:nonzero;stroke:none"
             d="m 27,61 h 108 c 0.39397,0 0.78415,0.03843 1.17055,0.115284 0.38638,0.07686 0.76156,0.190674 1.12553,0.341434 0.36397,0.150765 0.70975,0.335583 1.03731,0.554459 0.32759,0.218876 0.63066,0.467602 0.90924,0.746178 0.27858,0.278572 0.5273,0.581642 0.74615,0.909214 0.21888,0.327572 0.40369,0.673351 0.55446,1.037327 0.15078,0.363975 0.26459,0.739166 0.34145,1.125557 0.0769,0.386398 0.11529,0.77658 0.11531,1.170547 v 28 c -2e-5,0.393959 -0.0385,0.784142 -0.11531,1.170532 -0.0769,0.386399 -0.19067,0.761582 -0.34145,1.125557 -0.15077,0.363976 -0.33558,0.709755 -0.55444,1.037323 -0.21887,0.327568 -0.46759,0.630638 -0.74617,0.909226 -0.27858,0.278572 -0.58165,0.527298 -0.90924,0.74617 -0.32756,0.218882 -0.67334,0.403692 -1.03731,0.554462 -0.36397,0.15076 -0.73915,0.26457 -1.12553,0.34143 C 135.78415,100.96157 135.39397,101 135,101 H 27 c -0.393967,0 -0.784149,-0.0384 -1.170546,-0.1153 -0.386396,-0.0769 -0.761583,-0.19067 -1.12556,-0.34143 -0.363976,-0.15077 -0.70975,-0.33558 -1.03732,-0.554462 C 23.339005,99.769936 23.035933,99.52121 22.757359,99.242638 22.478781,98.96405 22.230057,98.66098 22.011183,98.333412 21.792305,98.005844 21.607485,97.660065 21.456722,97.296089 21.305958,96.932114 21.192146,96.556931 21.115288,96.170532 21.038427,95.784142 20.999998,95.393959 21,95 V 67 c -2e-6,-0.393967 0.03843,-0.784149 0.115288,-1.170547 0.07686,-0.386391 0.19067,-0.761582 0.341434,-1.125557 0.150763,-0.363976 0.335583,-0.709752 0.554457,-1.037323 0.218876,-0.327572 0.467602,-0.630646 0.74618,-0.909218 0.278574,-0.278576 0.581647,-0.527302 0.909217,-0.746178 0.32757,-0.218876 0.673344,-0.403694 1.03732,-0.554459 0.363977,-0.15076 0.739162,-0.264572 1.125558,-0.341434 C 26.215851,61.038429 26.606033,61 27,61 Z" /><path
             id="path40"
             style="fill:none;stroke:#000000;stroke-width:1;stroke-linecap:butt;stroke-linejoin:miter;stroke-miterlimit:10;stroke-dasharray:none;stroke-opacity:1"
             d="m 27,61 h 108 c 0.39397,0 0.78415,0.03843 1.17055,0.115284 0.38638,0.07686 0.76156,0.190674 1.12553,0.341434 0.36397,0.150765 0.70975,0.335583 1.03731,0.554459 0.32759,0.218876 0.63066,0.467602 0.90924,0.746178 0.27858,0.278572 0.5273,0.581642 0.74615,0.909214 0.21888,0.327572 0.40369,0.673351 0.55446,1.037327 0.15078,0.363975 0.26459,0.739166 0.34145,1.125557 0.0769,0.386398 0.11529,0.77658 0.11531,1.170547 v 28 c -2e-5,0.393959 -0.0385,0.784142 -0.11531,1.170532 -0.0769,0.386399 -0.19067,0.761582 -0.34145,1.125557 -0.15077,0.363976 -0.33558,0.709755 -0.55444,1.037323 -0.21887,0.327568 -0.46759,0.630638 -0.74617,0.909226 -0.27858,0.278572 -0.58165,0.527298 -0.90924,0.74617 -0.32756,0.218882 -0.67334,0.403692 -1.03731,0.554462 -0.36397,0.15076 -0.73915,0.26457 -1.12553,0.34143 C 135.78415,100.96157 135.39397,101 135,101 H 27 c -0.393967,0 -0.784149,-0.0384 -1.170546,-0.1153 -0.386396,-0.0769 -0.761583,-0.19067 -1.12556,-0.34143 -0.363976,-0.15077 -0.70975,-0.33558 -1.03732,-0.554462 C 23.339005,99.769936 23.035933,99.52121 22.757359,99.242638 22.478781,98.96405 22.230057,98.66098 22.011183,98.333412 21.792305,98.005844 21.607485,97.660065 21.456722,97.296089 21.305958,96.932114 21.192146,96.556931 21.115288,96.170532 21.038427,95.784142 20.999998,95.393959 21,95 V 67 c -2e-6,-0.393967 0.03843,-0.784149 0.115288,-1.170547 0.07686,-0.386391 0.19067,-0.761582 0.341434,-1.125557 0.150763,-0.363976 0.335583,-0.709752 0.554457,-1.037323 0.218876,-0.327572 0.467602,-0.630646 0.74618,-0.909218 0.278574,-0.278576 0.581647,-0.527302 0.909217,-0.746178 0.32757,-0.218876 0.673344,-0.403694 1.03732,-0.554459 0.363977,-0.15076 0.739162,-0.264572 1.125558,-0.341434 C 26.215851,61.038429 26.606033,61 27,61 Z" /><path
             id="path42"
             style="fill:none;stroke:#000000;stroke-width:1;stroke-linecap:butt;stroke-linejoin:miter;stroke-miterlimit:10;stroke-dasharray:none;stroke-opacity:1"
             d="M 81,21 V 54.630001" /><path
             id="path44"
             style="fill:#000000;fill-opacity:1;fill-rule:nonzero;stroke:none"
             d="m 81,59.880001 -3.5,-7 3.5,1.75 3.5,-1.75 z" /><path
             id="path46"
             style="fill:none;stroke:#000000;stroke-width:1;stroke-linecap:butt;stroke-linejoin:miter;stroke-miterlimit:10;stroke-dasharray:none;stroke-opacity:1"
             d="m 81,59.880001 -3.5,-7 3.5,1.75 3.5,-1.75 z" /></g><g
           transform="matrix(3.0042918,0,0,3.0042918,162.23175,15.021459)"
           id="g48"><text
             id="text52"
             style="font-variant:normal;font-weight:normal;font-size:12px;font-family:Helvetica;-inkscape-font-specification:Helvetica;writing-mode:lr-tb;fill:#000000;fill-opacity:1;fill-rule:nonzero;stroke:none"
             transform="translate(0.75,11)"><tspan
               id="tspan50"
               y="0"
               x="0 8.4550781 15.785156 22.458984 25.792969 34.458984 41.132812 47.806641">RTL Code</tspan></text>
</g><g
           transform="matrix(3.0042918,0,0,3.0042918,120.17167,225.32188)"
           id="g54"><text
             id="text58"
             style="font-variant:normal;font-weight:normal;font-size:12px;font-family:Helvetica;-inkscape-font-specification:Helvetica;writing-mode:lr-tb;fill:#000000;fill-opacity:1;fill-rule:nonzero;stroke:none"
             transform="translate(0.96875,11)"><tspan
               id="tspan56"
               y="0"
               x="0 8.0039062 14.003906 20.677734 24.011719 30.685547 37.359375 43.359375 46.025391 52.025391 55.359375 63.363281 70.037109 76.037109">Synthesis Pass</tspan></text>
</g><g
           transform="matrix(3.0042918,0,0,3.0042918,1.5021459,1.5021459)"
           id="g60"><path
             id="path62"
             style="fill:none;stroke:#000000;stroke-width:1;stroke-linecap:butt;stroke-linejoin:miter;stroke-miterlimit:10;stroke-dasharray:none;stroke-opacity:1"
             d="m 81,101 v 23.63" /><path
             id="path64"
             style="fill:#000000;fill-opacity:1;fill-rule:nonzero;stroke:none"
             d="m 81,129.88 -3.5,-7 3.5,1.75 3.5,-1.75 z" /><path
             id="path66"
             style="fill:none;stroke:#000000;stroke-width:1;stroke-linecap:butt;stroke-linejoin:miter;stroke-miterlimit:10;stroke-dasharray:none;stroke-opacity:1"
             d="m 81,129.88 -3.5,-7 3.5,1.75 3.5,-1.75 z" /></g><g
           transform="matrix(3.0042918,0,0,3.0042918,15.021459,405.57938)"
           id="g68"><text
             id="text72"
             style="font-variant:normal;font-weight:normal;font-size:12px;font-family:Helvetica;-inkscape-font-specification:Helvetica;writing-mode:lr-tb;fill:#000000;fill-opacity:1;fill-rule:nonzero;stroke:none"
             transform="translate(0.953125,11)"><tspan
               id="tspan70"
               y="0"
               x="0 8.0039062 10.669922 17.34375 24.017578 30.691406 34.6875 41.361328 44.695312 51.369141 58.042969 61.376953 70.042969 76.716797 82.716797 85.382812 92.056641 98.730469 102.06445 110.06836 112.73438 119.4082 129.4043 136.07812 142.75195 146.08594">Elaborated Design Elements</tspan></text>
</g><g
           transform="matrix(3.0042918,0,0,3.0042918,1.5021459,1.5021459)"
           id="g74"><path
             id="path76"
             style="fill:none;stroke:#000000;stroke-width:1;stroke-linecap:butt;stroke-linejoin:miter;stroke-miterlimit:10;stroke-dasharray:none;stroke-opacity:1"
             d="M 81,40.5 H 201" /><path
             id="path78"
             style="fill:none;stroke:#000000;stroke-width:1;stroke-linecap:butt;stroke-linejoin:miter;stroke-miterlimit:10;stroke-dasharray:none;stroke-opacity:1"
             d="M 201,41 V 284.63" /><path
             id="path80"
             style="fill:#000000;fill-opacity:1;fill-rule:nonzero;stroke:none"
             d="m 201,289.88 -3.5,-7 3.5,1.75 3.5,-1.75 z" /><path
             id="path82"
             style="fill:none;stroke:#000000;stroke-width:1;stroke-linecap:butt;stroke-linejoin:miter;stroke-miterlimit:10;stroke-dasharray:none;stroke-opacity:1"
             d="m 201,289.88 -3.5,-7 3.5,1.75 3.5,-1.75 z" /><path
             id="path84"
             style="fill:#ffffff;fill-opacity:1;fill-rule:nonzero;stroke:none"
             d="m 27,191 h 108 c 0.39397,2e-5 0.78415,0.0384 1.17055,0.11528 0.38638,0.0769 0.76156,0.19066 1.12553,0.34142 0.36397,0.15077 0.70975,0.33558 1.03731,0.55445 0.32759,0.21889 0.63066,0.46761 0.90924,0.74619 0.27858,0.27858 0.5273,0.58165 0.74615,0.90921 0.21888,0.32758 0.40369,0.67335 0.55446,1.03732 0.15078,0.36397 0.26459,0.73915 0.34145,1.12555 0.0769,0.3864 0.11529,0.7766 0.11531,1.17058 v 28 c -2e-5,0.39397 -0.0385,0.78413 -0.11531,1.17053 -0.0769,0.3864 -0.19067,0.76158 -0.34145,1.12555 -0.15077,0.36397 -0.33558,0.70973 -0.55444,1.03732 -0.21887,0.32756 -0.46759,0.63065 -0.74617,0.90923 -0.27858,0.27858 -0.58165,0.5273 -0.90924,0.74615 -0.32756,0.21889 -0.67334,0.40371 -1.03731,0.55446 -0.36397,0.15078 -0.73915,0.26459 -1.12553,0.34145 C 135.78415,230.96156 135.39397,231 135,231 H 27 c -0.393967,0 -0.784149,-0.0384 -1.170546,-0.11531 -0.386396,-0.0769 -0.761583,-0.19067 -1.12556,-0.34145 -0.363976,-0.15075 -0.70975,-0.33557 -1.03732,-0.55444 -0.327569,-0.21887 -0.630641,-0.46759 -0.909215,-0.74617 -0.278578,-0.27858 -0.527302,-0.58167 -0.746176,-0.90923 -0.218878,-0.32759 -0.403698,-0.67335 -0.554461,-1.03732 -0.150764,-0.36397 -0.264576,-0.73915 -0.341434,-1.12555 C 21.038427,225.78413 20.999998,225.39397 21,225 v -28 c -2e-6,-0.39398 0.03843,-0.78418 0.115288,-1.17058 0.07686,-0.3864 0.19067,-0.76159 0.341434,-1.12556 0.150763,-0.36397 0.335583,-0.70975 0.554457,-1.03731 0.218876,-0.32756 0.467602,-0.63063 0.74618,-0.90921 0.278574,-0.27858 0.581647,-0.5273 0.909217,-0.74619 0.32757,-0.21887 0.673344,-0.40368 1.03732,-0.55445 0.363977,-0.15076 0.739162,-0.26456 1.125558,-0.34142 C 26.215851,191.03844 26.606033,191.00002 27,191 Z" /><path
             id="path86"
             style="fill:none;stroke:#000000;stroke-width:1;stroke-linecap:butt;stroke-linejoin:miter;stroke-miterlimit:10;stroke-dasharray:none;stroke-opacity:1"
             d="m 27,191 h 108 c 0.39397,2e-5 0.78415,0.0384 1.17055,0.11528 0.38638,0.0769 0.76156,0.19066 1.12553,0.34142 0.36397,0.15077 0.70975,0.33558 1.03731,0.55445 0.32759,0.21889 0.63066,0.46761 0.90924,0.74619 0.27858,0.27858 0.5273,0.58165 0.74615,0.90921 0.21888,0.32758 0.40369,0.67335 0.55446,1.03732 0.15078,0.36397 0.26459,0.73915 0.34145,1.12555 0.0769,0.3864 0.11529,0.7766 0.11531,1.17058 v 28 c -2e-5,0.39397 -0.0385,0.78413 -0.11531,1.17053 -0.0769,0.3864 -0.19067,0.76158 -0.34145,1.12555 -0.15077,0.36397 -0.33558,0.70973 -0.55444,1.03732 -0.21887,0.32756 -0.46759,0.63065 -0.74617,0.90923 -0.27858,0.27858 -0.58165,0.5273 -0.90924,0.74615 -0.32756,0.21889 -0.67334,0.40371 -1.03731,0.55446 -0.36397,0.15078 -0.73915,0.26459 -1.12553,0.34145 C 135.78415,230.96156 135.39397,231 135,231 H 27 c -0.393967,0 -0.784149,-0.0384 -1.170546,-0.11531 -0.386396,-0.0769 -0.761583,-0.19067 -1.12556,-0.34145 -0.363976,-0.15075 -0.70975,-0.33557 -1.03732,-0.55444 -0.327569,-0.21887 -0.630641,-0.46759 -0.909215,-0.74617 -0.278578,-0.27858 -0.527302,-0.58167 -0.746176,-0.90923 -0.218878,-0.32759 -0.403698,-0.67335 -0.554461,-1.03732 -0.150764,-0.36397 -0.264576,-0.73915 -0.341434,-1.12555 C 21.038427,225.78413 20.999998,225.39397 21,225 v -28 c -2e-6,-0.39398 0.03843,-0.78418 0.115288,-1.17058 0.07686,-0.3864 0.19067,-0.76159 0.341434,-1.12556 0.150763,-0.36397 0.335583,-0.70975 0.554457,-1.03731 0.218876,-0.32756 0.467602,-0.63063 0.74618,-0.90921 0.278574,-0.27858 0.581647,-0.5273 0.909217,-0.74619 0.32757,-0.21887 0.673344,-0.40368 1.03732,-0.55445 0.363977,-0.15076 0.739162,-0.26456 1.125558,-0.34142 C 26.215851,191.03844 26.606033,191.00002 27,191 Z" /></g><g
           transform="matrix(3.0042918,0,0,3.0042918,132.18884,615.87982)"
           id="g88"><text
             id="text92"
             style="font-variant:normal;font-weight:normal;font-size:12px;font-family:Helvetica;-inkscape-font-specification:Helvetica;writing-mode:lr-tb;fill:#000000;fill-opacity:1;fill-rule:nonzero;stroke:none"
             transform="translate(0.640625,11)"><tspan
               id="tspan90"
               y="0"
               x="0 7.3300781 14.003906 20.677734 23.34375 26.677734 30.011719 33.345703 40.019531 42.685547 49.359375 55.359375 58.693359 61.359375 68.033203">Fault Injection</tspan></text>
</g><g
           transform="matrix(3.0042918,0,0,3.0042918,1.5021459,1.5021459)"
           id="g94"><path
             id="path96"
             style="fill:none;stroke:#000000;stroke-width:1;stroke-linecap:butt;stroke-linejoin:miter;stroke-miterlimit:10;stroke-dasharray:none;stroke-opacity:1"
             d="m 81,151 v 33.63" /><path
             id="path98"
             style="fill:#000000;fill-opacity:1;fill-rule:nonzero;stroke:none"
             d="m 81,189.88 -3.5,-7 3.5,1.75 3.5,-1.75 z" /><path
             id="path100"
             style="fill:none;stroke:#000000;stroke-width:1;stroke-linecap:butt;stroke-linejoin:miter;stroke-miterlimit:10;stroke-dasharray:none;stroke-opacity:1"
             d="m 81,189.88 -3.5,-7 3.5,1.75 3.5,-1.75 z" /><path
             id="path102"
             style="fill:none;stroke:#000000;stroke-width:1;stroke-linecap:butt;stroke-linejoin:miter;stroke-miterlimit:10;stroke-dasharray:none;stroke-opacity:1"
             d="M 201,211 H 147.36999" /><path
             id="path104"
             style="fill:#000000;fill-opacity:1;fill-rule:nonzero;stroke:none"
             d="m 142.11999,211 7,-3.5 -1.75,3.5 1.75,3.5 z" /><path
             id="path106"
             style="fill:none;stroke:#000000;stroke-width:1;stroke-linecap:butt;stroke-linejoin:miter;stroke-miterlimit:10;stroke-dasharray:none;stroke-opacity:1"
             d="m 142.11999,211 7,-3.5 -1.75,3.5 1.75,3.5 z" /><path
             id="path108"
             style="fill:none;stroke:#000000;stroke-width:1;stroke-linecap:butt;stroke-linejoin:miter;stroke-miterlimit:10;stroke-dasharray:none;stroke-opacity:1"
             d="m 81,231 v 53.63" /><path
             id="path110"
             style="fill:#000000;fill-opacity:1;fill-rule:nonzero;stroke:none"
             d="m 81,289.88 -3.5,-7 3.5,1.75 3.5,-1.75 z" /><path
             id="path112"
             style="fill:none;stroke:#000000;stroke-width:1;stroke-linecap:butt;stroke-linejoin:miter;stroke-miterlimit:10;stroke-dasharray:none;stroke-opacity:1"
             d="m 81,289.88 -3.5,-7 3.5,1.75 3.5,-1.75 z" /><path
             id="path114"
             style="fill:#ffffff;fill-opacity:1;fill-rule:nonzero;stroke:none"
             d="m 1,291 h 230 v 40 H 1 Z" /><path
             id="path116"
             style="fill:none;stroke:#000000;stroke-width:1;stroke-linecap:butt;stroke-linejoin:miter;stroke-miterlimit:10;stroke-dasharray:none;stroke-opacity:1"
             d="m 1,291 h 230 v 40 H 1 Z" /></g><g
           transform="matrix(3.0042918,0,0,3.0042918,273.39056,916.30902)"
           id="g118"><text
             id="text122"
             style="font-variant:normal;font-weight:normal;font-size:12px;font-family:Helvetica;-inkscape-font-specification:Helvetica;writing-mode:lr-tb;fill:#000000;fill-opacity:1;fill-rule:nonzero;stroke:none"
             transform="translate(0.65625,11)"><tspan
               id="tspan120"
               y="0"
               x="0 8.0039062 10.669922 20.666016 27.339844 30.005859 36.679688 40.013672 46.6875">Simulator</tspan></text>
</g></g></g></g></svg>